0.1270 e 
0.0906 t 
0.0817 i 
0.0751 o 
0.0697 r 
0.0675 s 
0.0633 n 
0.0609 a 
0.0599 h 
0.0425 c 
0.0403 l 
0.0278 d 
0.0276 f 
0.0241 p 
0.0236 u 
0.0223 y 
0.0202 m 
0.0197 g 
0.0193 w 
0.0149 b 
0.0098 v 
0.0077 x 
0.0015 k 
0.0015 j 
0.0010 q 
0.0005 z